module github.com/btwseeu78/cloudfunction

go 1.21.8

require (
	github.com/GoogleCloudPlatform/functions-framework-go v1.8.1
	github.com/alecthomas/kingpin/v2 v2.4.0
	github.com/cloudevents/sdk-go/v2 v2.15.2
)

require (
	github.com/alecthomas/units v0.0.0-20211218093645-b94a6e3cc137 // indirect
	github.com/google/uuid v1.4.0 // indirect
	github.com/json-iterator/go v1.1.10 // indirect
	github.com/modern-go/concurrent v0.0.0-20180228061459-e0a39a4cb421 // indirect
	github.com/modern-go/reflect2 v0.0.0-20180701023420-4b7aa43c6742 // indirect
	github.com/xhit/go-str2duration/v2 v2.1.0 // indirect
	go.uber.org/atomic v1.4.0 // indirect
	go.uber.org/multierr v1.1.0 // indirect
	go.uber.org/zap v1.10.0 // indirect
)
